[
    "appstream://org.kde.krita",
    "appstream://org.kde.digikam.desktop",
    "appstream://org.kde.kdenlive.desktop",
    "appstream://org.kde.ktorrent.desktop",
    "appstream://org.kde.gcompris.desktop",
    "appstream://org.kde.kmymoney.desktop",
    "appstream://org.kde.kolourpaint.desktop",
    "appstream://org.blender.Blender",
    "appstream://org.inkscape.Inkscape",
    "appstream://org.kde.development"
]
